<?xml version="1.0" encoding="UTF-8" standalone="no"?>
<!DOCTYPE svg PUBLIC "-//W3C//DTD SVG 1.1//EN" "http://www.w3.org/Graphics/SVG/1.1/DTD/svg11.dtd">
<!-- Generated by graphviz version 2.40.1 (0)
 -->
<!-- Title: %3 Pages: 1 -->
<svg width="908pt" height="923pt" viewBox="0.00 0.00 908.00 923.00" xmlns="http://www.w3.org/2000/svg" xmlns:xlink="http://www.w3.org/1999/xlink">
<g id="graph0" class="graph" transform="scale(1 1) rotate(0) translate(4 919)">
<title>%3</title>
<polygon fill="#ffffff" stroke="transparent" points="-4,4 -4,-919 904,-919 904,4 -4,4"/>
<!-- 101 -->
<g id="node1" class="node">
<title>101</title>
<g id="a_node1"><a xlink:href="../class.html?classId=101" target="_parent" xlink:title="Fluids 101">
<polygon fill="#fa8072" points="114.5,-36 35.5,-36 35.5,0 114.5,0 114.5,-36"/>
<text text-anchor="middle" x="75" y="-14.3" font-family="helvetica" font-size="14.00" fill="#000000">Fluids 101</text>
</a>
</g>
</g>
<!-- 201 -->
<g id="node9" class="node">
<title>201</title>
<g id="a_node9"><a xlink:href="../class.html?classId=201" target="_parent" xlink:title="Fluid-play 201">
<polygon fill="#ffff00" points="308.5,-36 207.5,-36 207.5,0 308.5,0 308.5,-36"/>
<text text-anchor="middle" x="258" y="-14.3" font-family="helvetica" font-size="14.00" fill="#000000">Fluid-play 201</text>
</a>
</g>
</g>
<!-- 101&#45;&gt;201 -->
<g id="edge1" class="edge">
<title>101-&gt;201</title>
<path fill="none" stroke="#000000" d="M114.7083,-18C138.7571,-18 169.9231,-18 197.0447,-18"/>
<polygon fill="#000000" points="197.218,-21.5001 207.218,-18 197.2179,-14.5001 197.218,-21.5001"/>
</g>
<!-- 102 -->
<g id="node2" class="node">
<title>102</title>
<g id="a_node2"><a xlink:href="../class.html?classId=102" target="_parent" xlink:title="Anal 102">
<polygon fill="#fa8072" points="110,-350 40,-350 40,-314 110,-314 110,-350"/>
<text text-anchor="middle" x="75" y="-328.3" font-family="helvetica" font-size="14.00" fill="#000000">Anal 102</text>
</a>
</g>
</g>
<!-- 211 -->
<g id="node14" class="node">
<title>211</title>
<g id="a_node14"><a xlink:href="../class.html?classId=211" target="_parent" xlink:title="Prostate Play 211">
<polygon fill="#ffff00" points="319.5,-429 196.5,-429 196.5,-393 319.5,-393 319.5,-429"/>
<text text-anchor="middle" x="258" y="-407.3" font-family="helvetica" font-size="14.00" fill="#000000">Prostate Play 211</text>
</a>
</g>
</g>
<!-- 102&#45;&gt;211 -->
<g id="edge5" class="edge">
<title>102-&gt;211</title>
<path fill="none" stroke="#000000" d="M110.3324,-348.3534C132.062,-358.3015 160.5311,-371.1398 186,-382 191.4,-384.3026 197.047,-386.6613 202.7007,-388.9903"/>
<polygon fill="#000000" points="201.5985,-392.3209 212.1793,-392.8667 204.2483,-385.8418 201.5985,-392.3209"/>
</g>
<!-- 212 -->
<g id="node15" class="node">
<title>212</title>
<g id="a_node15"><a xlink:href="../class.html?classId=212" target="_parent" xlink:title="Buttplug Training 212">
<polygon fill="#ffff00" points="329.5,-373 186.5,-373 186.5,-337 329.5,-337 329.5,-373"/>
<text text-anchor="middle" x="258" y="-351.3" font-family="helvetica" font-size="14.00" fill="#000000">Buttplug Training 212</text>
</a>
</g>
</g>
<!-- 102&#45;&gt;212 -->
<g id="edge6" class="edge">
<title>102-&gt;212</title>
<path fill="none" stroke="#000000" d="M110.2842,-336.4346C129.1029,-338.7998 153.1011,-341.816 176.2564,-344.7262"/>
<polygon fill="#000000" points="176.1027,-348.2344 186.4612,-346.0088 176.9757,-341.289 176.1027,-348.2344"/>
</g>
<!-- 215 -->
<g id="node18" class="node">
<title>215</title>
<g id="a_node18"><a xlink:href="../class.html?classId=215" target="_parent" xlink:title="Sex Training 215">
<polygon fill="#ffff00" points="316.5,-275 199.5,-275 199.5,-239 316.5,-239 316.5,-275"/>
<text text-anchor="middle" x="258" y="-253.3" font-family="helvetica" font-size="14.00" fill="#000000">Sex Training 215</text>
</a>
</g>
</g>
<!-- 102&#45;&gt;215 -->
<g id="edge7" class="edge">
<title>102-&gt;215</title>
<path fill="none" stroke="#000000" d="M110.2842,-317.5392C136.9007,-306.6309 173.8787,-291.476 204.178,-279.0582"/>
<polygon fill="#000000" points="205.8334,-282.1624 213.7592,-275.1315 203.1788,-275.6852 205.8334,-282.1624"/>
</g>
<!-- 302 -->
<g id="node24" class="node">
<title>302</title>
<g id="a_node24"><a xlink:href="../class.html?classId=302" target="_parent" xlink:title="Advanced Anal 302">
<polygon fill="#8fbc8f" points="511.5,-321 377.5,-321 377.5,-285 511.5,-285 511.5,-321"/>
<text text-anchor="middle" x="444.5" y="-299.3" font-family="helvetica" font-size="14.00" fill="#000000">Advanced Anal 302</text>
</a>
</g>
</g>
<!-- 102&#45;&gt;302 -->
<g id="edge11" class="edge">
<title>102-&gt;302</title>
<path fill="none" stroke="#000000" d="M110.0948,-329.2456C168.7117,-324.6451 287.8883,-315.2916 366.9746,-309.0845"/>
<polygon fill="#000000" points="367.68,-312.54 377.3755,-308.2682 367.1322,-305.5615 367.68,-312.54"/>
</g>
<!-- 103 -->
<g id="node3" class="node">
<title>103</title>
<g id="a_node3"><a xlink:href="../class.html?classId=103" target="_parent" xlink:title="Chastity 103">
<polygon fill="#fa8072" points="121,-591 29,-591 29,-555 121,-555 121,-591"/>
<text text-anchor="middle" x="75" y="-569.3" font-family="helvetica" font-size="14.00" fill="#000000">Chastity 103</text>
</a>
</g>
</g>
<!-- 203 -->
<g id="node10" class="node">
<title>203</title>
<g id="a_node10"><a xlink:href="../class.html?classId=203" target="_parent" xlink:title="Chastity 203">
<polygon fill="#ffff00" points="304,-591 212,-591 212,-555 304,-555 304,-591"/>
<text text-anchor="middle" x="258" y="-569.3" font-family="helvetica" font-size="14.00" fill="#000000">Chastity 203</text>
</a>
</g>
</g>
<!-- 103&#45;&gt;203 -->
<g id="edge2" class="edge">
<title>103-&gt;203</title>
<path fill="none" stroke="#000000" d="M121.1786,-573C145.6691,-573 175.9548,-573 201.8017,-573"/>
<polygon fill="#000000" points="201.8362,-576.5001 211.8361,-573 201.8361,-569.5001 201.8362,-576.5001"/>
</g>
<!-- 104 -->
<g id="node4" class="node">
<title>104</title>
<g id="a_node4"><a xlink:href="../class.html?classId=104" target="_parent" xlink:title="Femininity 104">
<polygon fill="#fa8072" points="127.5,-645 22.5,-645 22.5,-609 127.5,-609 127.5,-645"/>
<text text-anchor="middle" x="75" y="-623.3" font-family="helvetica" font-size="14.00" fill="#000000">Femininity 104</text>
</a>
</g>
</g>
<!-- 204 -->
<g id="node11" class="node">
<title>204</title>
<g id="a_node11"><a xlink:href="../class.html?classId=204" target="_parent" xlink:title="Crossdressing 204">
<polygon fill="#ffff00" points="322.5,-645 193.5,-645 193.5,-609 322.5,-609 322.5,-645"/>
<text text-anchor="middle" x="258" y="-623.3" font-family="helvetica" font-size="14.00" fill="#000000">Crossdressing 204</text>
</a>
</g>
</g>
<!-- 104&#45;&gt;204 -->
<g id="edge3" class="edge">
<title>104-&gt;204</title>
<path fill="none" stroke="#000000" d="M127.9312,-627C145.121,-627 164.5338,-627 183.0166,-627"/>
<polygon fill="#000000" points="183.1692,-630.5001 193.1692,-627 183.1691,-623.5001 183.1692,-630.5001"/>
</g>
<!-- 105 -->
<g id="node5" class="node">
<title>105</title>
<g id="a_node5"><a xlink:href="../class.html?classId=105" target="_parent" xlink:title="Oral 105">
<polygon fill="#fa8072" points="109.5,-252 40.5,-252 40.5,-216 109.5,-216 109.5,-252"/>
<text text-anchor="middle" x="75" y="-230.3" font-family="helvetica" font-size="14.00" fill="#000000">Oral 105</text>
</a>
</g>
</g>
<!-- 105&#45;&gt;215 -->
<g id="edge8" class="edge">
<title>105-&gt;215</title>
<path fill="none" stroke="#000000" d="M109.8516,-238.3803C132.1967,-241.1887 161.9728,-244.931 188.9678,-248.3238"/>
<polygon fill="#000000" points="188.7979,-251.8299 199.1564,-249.6044 189.6709,-244.8846 188.7979,-251.8299"/>
</g>
<!-- 305 -->
<g id="node27" class="node">
<title>305</title>
<g id="a_node27"><a xlink:href="../class.html?classId=305" target="_parent" xlink:title="Blowjobs 305">
<polygon fill="#8fbc8f" points="493,-229 396,-229 396,-193 493,-193 493,-229"/>
<text text-anchor="middle" x="444.5" y="-207.3" font-family="helvetica" font-size="14.00" fill="#000000">Blowjobs 305</text>
</a>
</g>
</g>
<!-- 105&#45;&gt;305 -->
<g id="edge14" class="edge">
<title>105-&gt;305</title>
<path fill="none" stroke="#000000" d="M109.7617,-231.8362C173.1189,-227.8925 308.0105,-219.496 385.8311,-214.6519"/>
<polygon fill="#000000" points="386.193,-218.1363 395.9562,-214.0217 385.7581,-211.1498 386.193,-218.1363"/>
</g>
<!-- 106 -->
<g id="node6" class="node">
<title>106</title>
<g id="a_node6"><a xlink:href="../class.html?classId=106" target="_parent" xlink:title="Cum Play 106">
<polygon fill="#fa8072" points="126,-117 24,-117 24,-81 126,-81 126,-117"/>
<text text-anchor="middle" x="75" y="-95.3" font-family="helvetica" font-size="14.00" fill="#000000">Cum Play 106</text>
</a>
</g>
</g>
<!-- 306 -->
<g id="node28" class="node">
<title>306</title>
<g id="a_node28"><a xlink:href="../class.html?classId=306" target="_parent" xlink:title="Cum Appreciation 306">
<polygon fill="#8fbc8f" points="520,-117 369,-117 369,-81 520,-81 520,-117"/>
<text text-anchor="middle" x="444.5" y="-95.3" font-family="helvetica" font-size="14.00" fill="#000000">Cum Appreciation 306</text>
</a>
</g>
</g>
<!-- 106&#45;&gt;306 -->
<g id="edge15" class="edge">
<title>106-&gt;306</title>
<path fill="none" stroke="#000000" d="M126.3774,-99C186.3857,-99 286.591,-99 358.5132,-99"/>
<polygon fill="#000000" points="358.9113,-102.5001 368.9113,-99 358.9113,-95.5001 358.9113,-102.5001"/>
</g>
<!-- 107 -->
<g id="node7" class="node">
<title>107</title>
<g id="a_node7"><a xlink:href="../class.html?classId=107" target="_parent" xlink:title="Vaginal Insertions 107">
<polygon fill="#fa8072" points="150,-171 0,-171 0,-135 150,-135 150,-171"/>
<text text-anchor="middle" x="75" y="-149.3" font-family="helvetica" font-size="14.00" fill="#000000">Vaginal Insertions 107</text>
</a>
</g>
</g>
<!-- 207 -->
<g id="node12" class="node">
<title>207</title>
<g id="a_node12"><a xlink:href="../class.html?classId=207" target="_parent" xlink:title="Pussy Stretching 207">
<polygon fill="#ffff00" points="330,-171 186,-171 186,-135 330,-135 330,-171"/>
<text text-anchor="middle" x="258" y="-149.3" font-family="helvetica" font-size="14.00" fill="#000000">Pussy Stretching 207</text>
</a>
</g>
</g>
<!-- 107&#45;&gt;207 -->
<g id="edge4" class="edge">
<title>107-&gt;207</title>
<path fill="none" stroke="#000000" d="M150.2253,-153C158.5655,-153 167.0921,-153 175.5157,-153"/>
<polygon fill="#000000" points="175.7203,-156.5001 185.7203,-153 175.7202,-149.5001 175.7203,-156.5001"/>
</g>
<!-- 118 -->
<g id="node8" class="node">
<title>118</title>
<g id="a_node8"><a xlink:href="../class.html?classId=118" target="_parent" xlink:title="Exotic Materials 108">
<polygon fill="#fa8072" points="144.5,-699 5.5,-699 5.5,-663 144.5,-663 144.5,-699"/>
<text text-anchor="middle" x="75" y="-677.3" font-family="helvetica" font-size="14.00" fill="#000000">Exotic Materials 108</text>
</a>
</g>
</g>
<!-- 218 -->
<g id="node21" class="node">
<title>218</title>
<g id="a_node21"><a xlink:href="../class.html?classId=218" target="_parent" xlink:title="Fetish Materials 208">
<polygon fill="#ffff00" points="327.5,-699 188.5,-699 188.5,-663 327.5,-663 327.5,-699"/>
<text text-anchor="middle" x="258" y="-677.3" font-family="helvetica" font-size="14.00" fill="#000000">Fetish Materials 208</text>
</a>
</g>
</g>
<!-- 118&#45;&gt;218 -->
<g id="edge9" class="edge">
<title>118-&gt;218</title>
<path fill="none" stroke="#000000" d="M144.7065,-681C155.6879,-681 167.1139,-681 178.3007,-681"/>
<polygon fill="#000000" points="178.4873,-684.5001 188.4873,-681 178.4873,-677.5001 178.4873,-684.5001"/>
</g>
<!-- 301 -->
<g id="node23" class="node">
<title>301</title>
<g id="a_node23"><a xlink:href="../class.html?classId=301" target="_parent" xlink:title="Advanced fluids 301">
<polygon fill="#8fbc8f" points="513.5,-36 375.5,-36 375.5,0 513.5,0 513.5,-36"/>
<text text-anchor="middle" x="444.5" y="-14.3" font-family="helvetica" font-size="14.00" fill="#000000">Advanced fluids 301</text>
</a>
</g>
</g>
<!-- 201&#45;&gt;301 -->
<g id="edge10" class="edge">
<title>201-&gt;301</title>
<path fill="none" stroke="#000000" d="M308.9619,-18C326.3317,-18 346.185,-18 365.2407,-18"/>
<polygon fill="#000000" points="365.4187,-21.5001 375.4187,-18 365.4186,-14.5001 365.4187,-21.5001"/>
</g>
<!-- 303 -->
<g id="node25" class="node">
<title>303</title>
<g id="a_node25"><a xlink:href="../class.html?classId=303" target="_parent" xlink:title="Longterm chastity 303">
<polygon fill="#8fbc8f" points="519.5,-591 369.5,-591 369.5,-555 519.5,-555 519.5,-591"/>
<text text-anchor="middle" x="444.5" y="-569.3" font-family="helvetica" font-size="14.00" fill="#000000">Longterm chastity 303</text>
</a>
</g>
</g>
<!-- 203&#45;&gt;303 -->
<g id="edge12" class="edge">
<title>203-&gt;303</title>
<path fill="none" stroke="#000000" d="M304.1011,-573C320.7422,-573 340.1018,-573 359.0307,-573"/>
<polygon fill="#000000" points="359.1767,-576.5001 369.1767,-573 359.1767,-569.5001 359.1767,-576.5001"/>
</g>
<!-- 304 -->
<g id="node26" class="node">
<title>304</title>
<g id="a_node26"><a xlink:href="../class.html?classId=304" target="_parent" xlink:title="Feminization 304">
<polygon fill="#8fbc8f" points="504.5,-645 384.5,-645 384.5,-609 504.5,-609 504.5,-645"/>
<text text-anchor="middle" x="444.5" y="-623.3" font-family="helvetica" font-size="14.00" fill="#000000">Feminization 304</text>
</a>
</g>
</g>
<!-- 204&#45;&gt;304 -->
<g id="edge13" class="edge">
<title>204-&gt;304</title>
<path fill="none" stroke="#000000" d="M322.7052,-627C339.2588,-627 357.1405,-627 373.9708,-627"/>
<polygon fill="#000000" points="374.2928,-630.5001 384.2928,-627 374.2928,-623.5001 374.2928,-630.5001"/>
</g>
<!-- 307 -->
<g id="node29" class="node">
<title>307</title>
<g id="a_node29"><a xlink:href="../class.html?classId=307" target="_parent" xlink:title="Female Training 307">
<polygon fill="#8fbc8f" points="514.5,-171 374.5,-171 374.5,-135 514.5,-135 514.5,-171"/>
<text text-anchor="middle" x="444.5" y="-149.3" font-family="helvetica" font-size="14.00" fill="#000000">Female Training 307</text>
</a>
</g>
</g>
<!-- 207&#45;&gt;307 -->
<g id="edge16" class="edge">
<title>207-&gt;307</title>
<path fill="none" stroke="#000000" d="M330.1058,-153C341.2497,-153 352.8189,-153 364.1302,-153"/>
<polygon fill="#000000" points="364.4262,-156.5001 374.4262,-153 364.4261,-149.5001 364.4262,-156.5001"/>
</g>
<!-- 209 -->
<g id="node13" class="node">
<title>209</title>
<g id="a_node13"><a xlink:href="../class.html?classId=209" target="_parent" xlink:title="Orgasm Training 209">
<polygon fill="#ffff00" points="329.5,-483 186.5,-483 186.5,-447 329.5,-447 329.5,-483"/>
<text text-anchor="middle" x="258" y="-461.3" font-family="helvetica" font-size="14.00" fill="#000000">Orgasm Training 209</text>
</a>
</g>
</g>
<!-- 309 -->
<g id="node30" class="node">
<title>309</title>
<g id="a_node30"><a xlink:href="../class.html?classId=309" target="_parent" xlink:title="Forced Orgasms 309">
<polygon fill="#8fbc8f" points="517,-483 372,-483 372,-447 517,-447 517,-483"/>
<text text-anchor="middle" x="444.5" y="-461.3" font-family="helvetica" font-size="14.00" fill="#000000">Forced Orgasms 309</text>
</a>
</g>
</g>
<!-- 209&#45;&gt;309 -->
<g id="edge18" class="edge">
<title>209-&gt;309</title>
<path fill="none" stroke="#000000" d="M329.5724,-465C340.0814,-465 350.9793,-465 361.691,-465"/>
<polygon fill="#000000" points="361.8853,-468.5001 371.8852,-465 361.8852,-461.5001 361.8853,-468.5001"/>
</g>
<!-- 311 -->
<g id="node31" class="node">
<title>311</title>
<g id="a_node31"><a xlink:href="../class.html?classId=311" target="_parent" xlink:title="Prostate Milking 311">
<polygon fill="#8fbc8f" points="514.5,-429 374.5,-429 374.5,-393 514.5,-393 514.5,-429"/>
<text text-anchor="middle" x="444.5" y="-407.3" font-family="helvetica" font-size="14.00" fill="#000000">Prostate Milking 311</text>
</a>
</g>
</g>
<!-- 211&#45;&gt;311 -->
<g id="edge19" class="edge">
<title>211-&gt;311</title>
<path fill="none" stroke="#000000" d="M319.5839,-411C333.808,-411 349.1475,-411 364.0431,-411"/>
<polygon fill="#000000" points="364.2654,-414.5001 374.2654,-411 364.2653,-407.5001 364.2654,-414.5001"/>
</g>
<!-- 312 -->
<g id="node32" class="node">
<title>312</title>
<g id="a_node32"><a xlink:href="../class.html?classId=312" target="_parent" xlink:title="Buttplug Stretching 312">
<polygon fill="#8fbc8f" points="523,-375 366,-375 366,-339 523,-339 523,-375"/>
<text text-anchor="middle" x="444.5" y="-353.3" font-family="helvetica" font-size="14.00" fill="#000000">Buttplug Stretching 312</text>
</a>
</g>
</g>
<!-- 212&#45;&gt;312 -->
<g id="edge20" class="edge">
<title>212-&gt;312</title>
<path fill="none" stroke="#000000" d="M329.5724,-355.7675C338.1369,-355.8594 346.9597,-355.954 355.7295,-356.048"/>
<polygon fill="#000000" points="355.9445,-359.5504 365.9815,-356.158 356.0196,-352.5509 355.9445,-359.5504"/>
</g>
<!-- 213 -->
<g id="node16" class="node">
<title>213</title>
<g id="a_node16"><a xlink:href="../class.html?classId=213" target="_parent" xlink:title="Edging 110">
<polygon fill="#ffff00" points="300.5,-537 215.5,-537 215.5,-501 300.5,-501 300.5,-537"/>
<text text-anchor="middle" x="258" y="-515.3" font-family="helvetica" font-size="14.00" fill="#000000">Edging 110</text>
</a>
</g>
</g>
<!-- 313 -->
<g id="node33" class="node">
<title>313</title>
<g id="a_node33"><a xlink:href="../class.html?classId=313" target="_parent" xlink:title="Tease and Denial 310">
<polygon fill="#8fbc8f" points="518,-537 371,-537 371,-501 518,-501 518,-537"/>
<text text-anchor="middle" x="444.5" y="-515.3" font-family="helvetica" font-size="14.00" fill="#000000">Tease and Denial 310</text>
</a>
</g>
</g>
<!-- 213&#45;&gt;313 -->
<g id="edge21" class="edge">
<title>213-&gt;313</title>
<path fill="none" stroke="#000000" d="M300.7869,-519C318.6236,-519 339.9854,-519 360.7165,-519"/>
<polygon fill="#000000" points="360.8248,-522.5001 370.8248,-519 360.8247,-515.5001 360.8248,-522.5001"/>
</g>
<!-- 214 -->
<g id="node17" class="node">
<title>214</title>
<g id="a_node17"><a xlink:href="../class.html?classId=214" target="_parent" xlink:title="Bondage 214">
<polygon fill="#ffff00" points="306.5,-861 209.5,-861 209.5,-825 306.5,-825 306.5,-861"/>
<text text-anchor="middle" x="258" y="-839.3" font-family="helvetica" font-size="14.00" fill="#000000">Bondage 214</text>
</a>
</g>
</g>
<!-- 314 -->
<g id="node34" class="node">
<title>314</title>
<g id="a_node34"><a xlink:href="../class.html?classId=314" target="_parent" xlink:title="Heavy Bondage 314">
<polygon fill="#8fbc8f" points="514,-861 375,-861 375,-825 514,-825 514,-861"/>
<text text-anchor="middle" x="444.5" y="-839.3" font-family="helvetica" font-size="14.00" fill="#000000">Heavy Bondage 314</text>
</a>
</g>
</g>
<!-- 214&#45;&gt;314 -->
<g id="edge22" class="edge">
<title>214-&gt;314</title>
<path fill="none" stroke="#000000" d="M306.5138,-843C324.2519,-843 344.8204,-843 364.5743,-843"/>
<polygon fill="#000000" points="364.8109,-846.5001 374.8108,-843 364.8108,-839.5001 364.8109,-846.5001"/>
</g>
<!-- 215&#45;&gt;307 -->
<g id="edge17" class="edge">
<title>215-&gt;307</title>
<path fill="none" stroke="#000000" d="M281.5062,-238.9007C302.7765,-223.0712 335.3711,-200.1505 366,-184 371.9216,-180.8775 378.2299,-177.8822 384.5982,-175.0681"/>
<polygon fill="#000000" points="386.1117,-178.2276 393.9333,-171.0811 383.3623,-171.7902 386.1117,-178.2276"/>
</g>
<!-- 415 -->
<g id="node49" class="node">
<title>415</title>
<g id="a_node49"><a xlink:href="../class.html?classId=415" target="_parent" xlink:title="Double Penetration 415">
<polygon fill="#add8e6" points="727.5,-279 569.5,-279 569.5,-243 727.5,-243 727.5,-279"/>
<text text-anchor="middle" x="648.5" y="-257.3" font-family="helvetica" font-size="14.00" fill="#000000">Double Penetration 415</text>
</a>
</g>
</g>
<!-- 215&#45;&gt;415 -->
<g id="edge37" class="edge">
<title>215-&gt;415</title>
<path fill="none" stroke="#000000" d="M316.8846,-257.6032C381.0871,-258.2608 484.5801,-259.3209 558.8788,-260.082"/>
<polygon fill="#000000" points="559.1264,-263.5846 569.1617,-260.1873 559.1981,-256.585 559.1264,-263.5846"/>
</g>
<!-- 216 -->
<g id="node19" class="node">
<title>216</title>
<g id="a_node19"><a xlink:href="../class.html?classId=216" target="_parent" xlink:title="Exposure 216">
<polygon fill="#ffff00" points="308,-753 208,-753 208,-717 308,-717 308,-753"/>
<text text-anchor="middle" x="258" y="-731.3" font-family="helvetica" font-size="14.00" fill="#000000">Exposure 216</text>
</a>
</g>
</g>
<!-- 316 -->
<g id="node35" class="node">
<title>316</title>
<g id="a_node35"><a xlink:href="../class.html?classId=316" target="_parent" xlink:title="Publicity 316">
<polygon fill="#8fbc8f" points="491,-753 398,-753 398,-717 491,-717 491,-753"/>
<text text-anchor="middle" x="444.5" y="-731.3" font-family="helvetica" font-size="14.00" fill="#000000">Publicity 316</text>
</a>
</g>
</g>
<!-- 216&#45;&gt;316 -->
<g id="edge23" class="edge">
<title>216-&gt;316</title>
<path fill="none" stroke="#000000" d="M308.4696,-735C332.9314,-735 362.4078,-735 387.6588,-735"/>
<polygon fill="#000000" points="387.8311,-738.5001 397.831,-735 387.831,-731.5001 387.8311,-738.5001"/>
</g>
<!-- 217 -->
<g id="node20" class="node">
<title>217</title>
<g id="a_node20"><a xlink:href="../class.html?classId=217" target="_parent" xlink:title="Pet play 117">
<polygon fill="#ffff00" points="303.5,-915 212.5,-915 212.5,-879 303.5,-879 303.5,-915"/>
<text text-anchor="middle" x="258" y="-893.3" font-family="helvetica" font-size="14.00" fill="#000000">Pet play 117</text>
</a>
</g>
</g>
<!-- 317 -->
<g id="node36" class="node">
<title>317</title>
<g id="a_node36"><a xlink:href="../class.html?classId=317" target="_parent" xlink:title="Pet Training 317">
<polygon fill="#8fbc8f" points="501,-915 388,-915 388,-879 501,-879 501,-915"/>
<text text-anchor="middle" x="444.5" y="-893.3" font-family="helvetica" font-size="14.00" fill="#000000">Pet Training 317</text>
</a>
</g>
</g>
<!-- 217&#45;&gt;317 -->
<g id="edge24" class="edge">
<title>217-&gt;317</title>
<path fill="none" stroke="#000000" d="M303.623,-897C325.7972,-897 352.8829,-897 377.3585,-897"/>
<polygon fill="#000000" points="377.6663,-900.5001 387.6663,-897 377.6663,-893.5001 377.6663,-900.5001"/>
</g>
<!-- 318 -->
<g id="node37" class="node">
<title>318</title>
<g id="a_node37"><a xlink:href="../class.html?classId=318" target="_parent" xlink:title="Fetish Clothing 308">
<polygon fill="#8fbc8f" points="511,-699 378,-699 378,-663 511,-663 511,-699"/>
<text text-anchor="middle" x="444.5" y="-677.3" font-family="helvetica" font-size="14.00" fill="#000000">Fetish Clothing 308</text>
</a>
</g>
</g>
<!-- 218&#45;&gt;318 -->
<g id="edge25" class="edge">
<title>218-&gt;318</title>
<path fill="none" stroke="#000000" d="M327.7109,-681C340.8199,-681 354.593,-681 367.8986,-681"/>
<polygon fill="#000000" points="367.9637,-684.5001 377.9637,-681 367.9637,-677.5001 367.9637,-684.5001"/>
</g>
<!-- 220 -->
<g id="node22" class="node">
<title>220</title>
<g id="a_node22"><a xlink:href="../class.html?classId=220" target="_parent" xlink:title="Obedience 220">
<polygon fill="#ffff00" points="312.5,-807 203.5,-807 203.5,-771 312.5,-771 312.5,-807"/>
<text text-anchor="middle" x="258" y="-785.3" font-family="helvetica" font-size="14.00" fill="#000000">Obedience 220</text>
</a>
</g>
</g>
<!-- 320 -->
<g id="node38" class="node">
<title>320</title>
<g id="a_node38"><a xlink:href="../class.html?classId=320" target="_parent" xlink:title="Submission 320">
<polygon fill="#8fbc8f" points="501,-807 388,-807 388,-771 501,-771 501,-807"/>
<text text-anchor="middle" x="444.5" y="-785.3" font-family="helvetica" font-size="14.00" fill="#000000">Submission 320</text>
</a>
</g>
</g>
<!-- 220&#45;&gt;320 -->
<g id="edge26" class="edge">
<title>220-&gt;320</title>
<path fill="none" stroke="#000000" d="M312.696,-789C333.0168,-789 356.3023,-789 377.5922,-789"/>
<polygon fill="#000000" points="377.8615,-792.5001 387.8615,-789 377.8615,-785.5001 377.8615,-792.5001"/>
</g>
<!-- 401 -->
<g id="node39" class="node">
<title>401</title>
<g id="a_node39"><a xlink:href="../class.html?classId=401" target="_parent" xlink:title="Fluidity 401">
<polygon fill="#add8e6" points="691.5,-36 605.5,-36 605.5,0 691.5,0 691.5,-36"/>
<text text-anchor="middle" x="648.5" y="-14.3" font-family="helvetica" font-size="14.00" fill="#000000">Fluidity 401</text>
</a>
</g>
</g>
<!-- 301&#45;&gt;401 -->
<g id="edge27" class="edge">
<title>301-&gt;401</title>
<path fill="none" stroke="#000000" d="M513.5651,-18C540.2839,-18 570.3804,-18 595.3587,-18"/>
<polygon fill="#000000" points="595.3694,-21.5001 605.3693,-18 595.3693,-14.5001 595.3694,-21.5001"/>
</g>
<!-- 402 -->
<g id="node40" class="node">
<title>402</title>
<g id="a_node40"><a xlink:href="../class.html?classId=402" target="_parent" xlink:title="Deep Anal 402">
<polygon fill="#add8e6" points="701.5,-333 595.5,-333 595.5,-297 701.5,-297 701.5,-333"/>
<text text-anchor="middle" x="648.5" y="-311.3" font-family="helvetica" font-size="14.00" fill="#000000">Deep Anal 402</text>
</a>
</g>
</g>
<!-- 302&#45;&gt;402 -->
<g id="edge28" class="edge">
<title>302-&gt;402</title>
<path fill="none" stroke="#000000" d="M511.5798,-306.9459C535.2511,-308.3383 561.776,-309.8986 585.1305,-311.2724"/>
<polygon fill="#000000" points="585.0825,-314.7755 595.2708,-311.8689 585.4936,-307.7876 585.0825,-314.7755"/>
</g>
<!-- 302&#45;&gt;415 -->
<g id="edge38" class="edge">
<title>302-&gt;415</title>
<path fill="none" stroke="#000000" d="M511.5798,-289.1895C526.8707,-286.0413 543.3524,-282.648 559.4011,-279.3439"/>
<polygon fill="#000000" points="560.2344,-282.7458 569.3232,-277.3011 558.8228,-275.8896 560.2344,-282.7458"/>
</g>
<!-- 403 -->
<g id="node41" class="node">
<title>403</title>
<g id="a_node41"><a xlink:href="../class.html?classId=403" target="_parent" xlink:title="Permanent Chastity 403">
<polygon fill="#add8e6" points="729,-591 568,-591 568,-555 729,-555 729,-591"/>
<text text-anchor="middle" x="648.5" y="-569.3" font-family="helvetica" font-size="14.00" fill="#000000">Permanent Chastity 403</text>
</a>
</g>
</g>
<!-- 303&#45;&gt;403 -->
<g id="edge29" class="edge">
<title>303-&gt;403</title>
<path fill="none" stroke="#000000" d="M519.593,-573C531.9638,-573 544.9033,-573 557.61,-573"/>
<polygon fill="#000000" points="557.7354,-576.5001 567.7353,-573 557.7353,-569.5001 557.7354,-576.5001"/>
</g>
<!-- 404 -->
<g id="node42" class="node">
<title>404</title>
<g id="a_node42"><a xlink:href="../class.html?classId=404" target="_parent" xlink:title="Gender Reassignment 404">
<polygon fill="#add8e6" points="738,-645 559,-645 559,-609 738,-609 738,-645"/>
<text text-anchor="middle" x="648.5" y="-623.3" font-family="helvetica" font-size="14.00" fill="#000000">Gender Reassignment 404</text>
</a>
</g>
</g>
<!-- 304&#45;&gt;404 -->
<g id="edge30" class="edge">
<title>304-&gt;404</title>
<path fill="none" stroke="#000000" d="M504.6034,-627C518.4498,-627 533.5429,-627 548.5759,-627"/>
<polygon fill="#000000" points="548.9577,-630.5001 558.9577,-627 548.9577,-623.5001 548.9577,-630.5001"/>
</g>
<!-- 405 -->
<g id="node43" class="node">
<title>405</title>
<g id="a_node43"><a xlink:href="../class.html?classId=405" target="_parent" xlink:title="Deepthroat Practice 405">
<polygon fill="#add8e6" points="729.5,-225 567.5,-225 567.5,-189 729.5,-189 729.5,-225"/>
<text text-anchor="middle" x="648.5" y="-203.3" font-family="helvetica" font-size="14.00" fill="#000000">Deepthroat Practice 405</text>
</a>
</g>
</g>
<!-- 305&#45;&gt;405 -->
<g id="edge31" class="edge">
<title>305-&gt;405</title>
<path fill="none" stroke="#000000" d="M493.1039,-210.047C512.3171,-209.6703 535.0504,-209.2245 557.114,-208.7919"/>
<polygon fill="#000000" points="557.2597,-212.2898 567.1891,-208.5943 557.1224,-205.2911 557.2597,-212.2898"/>
</g>
<!-- 305&#45;&gt;415 -->
<g id="edge39" class="edge">
<title>305-&gt;415</title>
<path fill="none" stroke="#000000" d="M493.1039,-222.9127C514.5447,-228.1678 540.3692,-234.4974 564.7548,-240.4742"/>
<polygon fill="#000000" points="564.1913,-243.9396 574.737,-242.9208 565.8577,-237.1409 564.1913,-243.9396"/>
</g>
<!-- 406 -->
<g id="node44" class="node">
<title>406</title>
<g id="a_node44"><a xlink:href="../class.html?classId=406" target="_parent" xlink:title="Cum Addiction 406">
<polygon fill="#add8e6" points="714,-117 583,-117 583,-81 714,-81 714,-117"/>
<text text-anchor="middle" x="648.5" y="-95.3" font-family="helvetica" font-size="14.00" fill="#000000">Cum Addiction 406</text>
</a>
</g>
</g>
<!-- 306&#45;&gt;406 -->
<g id="edge32" class="edge">
<title>306-&gt;406</title>
<path fill="none" stroke="#000000" d="M520.1722,-99C537.1685,-99 555.2117,-99 572.2321,-99"/>
<polygon fill="#000000" points="572.6791,-102.5001 582.6791,-99 572.679,-95.5001 572.6791,-102.5001"/>
</g>
<!-- 407 -->
<g id="node45" class="node">
<title>407</title>
<g id="a_node45"><a xlink:href="../class.html?classId=407" target="_parent" xlink:title="Feminism 407">
<polygon fill="#add8e6" points="700,-171 597,-171 597,-135 700,-135 700,-171"/>
<text text-anchor="middle" x="648.5" y="-149.3" font-family="helvetica" font-size="14.00" fill="#000000">Feminism 407</text>
</a>
</g>
</g>
<!-- 307&#45;&gt;407 -->
<g id="edge33" class="edge">
<title>307-&gt;407</title>
<path fill="none" stroke="#000000" d="M514.7052,-153C538.0927,-153 563.9582,-153 586.6636,-153"/>
<polygon fill="#000000" points="586.8533,-156.5001 596.8533,-153 586.8533,-149.5001 586.8533,-156.5001"/>
</g>
<!-- 409 -->
<g id="node46" class="node">
<title>409</title>
<g id="a_node46"><a xlink:href="../class.html?classId=409" target="_parent" xlink:title="Orgasm Torture 409">
<polygon fill="#add8e6" points="718,-483 579,-483 579,-447 718,-447 718,-483"/>
<text text-anchor="middle" x="648.5" y="-461.3" font-family="helvetica" font-size="14.00" fill="#000000">Orgasm Torture 409</text>
</a>
</g>
</g>
<!-- 309&#45;&gt;409 -->
<g id="edge34" class="edge">
<title>309-&gt;409</title>
<path fill="none" stroke="#000000" d="M517.2847,-465C533.8675,-465 551.5754,-465 568.4429,-465"/>
<polygon fill="#000000" points="568.8192,-468.5001 578.8191,-465 568.8191,-461.5001 568.8192,-468.5001"/>
</g>
<!-- 1 -->
<g id="node54" class="node">
<title>1</title>
<g id="a_node54"><a xlink:href="../major.html?majorId=1" target="_parent" xlink:title="Anal Technologies">
<polygon fill="#ee82ee" points="900,-379 774,-379 774,-343 900,-343 900,-379"/>
<text text-anchor="middle" x="837" y="-357.3" font-family="helvetica" font-size="14.00" fill="#000000">Anal Technologies</text>
</a>
</g>
</g>
<!-- 311&#45;&gt;1 -->
<g id="edge44" class="edge">
<title>311-&gt;1</title>
<path fill="none" stroke="#000000" d="M514.6711,-402.061C584.8665,-393.1189 692.3815,-379.4227 763.6711,-370.3413"/>
<polygon fill="#000000" points="764.4401,-373.7717 773.9177,-369.036 763.5555,-366.8278 764.4401,-373.7717"/>
</g>
<!-- 312&#45;&gt;1 -->
<g id="edge45" class="edge">
<title>312-&gt;1</title>
<path fill="none" stroke="#000000" d="M523.4561,-357.8046C593.5099,-358.5186 695.0596,-359.5535 763.4347,-360.2503"/>
<polygon fill="#000000" points="763.6585,-363.7527 773.6937,-360.3548 763.7299,-356.753 763.6585,-363.7527"/>
</g>
<!-- 413 -->
<g id="node47" class="node">
<title>413</title>
<g id="a_node47"><a xlink:href="../class.html?classId=413" target="_parent" xlink:title="Orgasm Denial 410">
<polygon fill="#add8e6" points="715.5,-537 581.5,-537 581.5,-501 715.5,-501 715.5,-537"/>
<text text-anchor="middle" x="648.5" y="-515.3" font-family="helvetica" font-size="14.00" fill="#000000">Orgasm Denial 410</text>
</a>
</g>
</g>
<!-- 313&#45;&gt;413 -->
<g id="edge35" class="edge">
<title>313-&gt;413</title>
<path fill="none" stroke="#000000" d="M518.1487,-519C535.4167,-519 553.8624,-519 571.2816,-519"/>
<polygon fill="#000000" points="571.4026,-522.5001 581.4026,-519 571.4025,-515.5001 571.4026,-522.5001"/>
</g>
<!-- 414 -->
<g id="node48" class="node">
<title>414</title>
<g id="a_node48"><a xlink:href="../class.html?classId=414" target="_parent" xlink:title="Masochism 414">
<polygon fill="#add8e6" points="705,-861 592,-861 592,-825 705,-825 705,-861"/>
<text text-anchor="middle" x="648.5" y="-839.3" font-family="helvetica" font-size="14.00" fill="#000000">Masochism 414</text>
</a>
</g>
</g>
<!-- 314&#45;&gt;414 -->
<g id="edge36" class="edge">
<title>314-&gt;414</title>
<path fill="none" stroke="#000000" d="M514.1347,-843C535.9566,-843 559.9834,-843 581.6114,-843"/>
<polygon fill="#000000" points="581.6884,-846.5001 591.6884,-843 581.6884,-839.5001 581.6884,-846.5001"/>
</g>
<!-- 416 -->
<g id="node50" class="node">
<title>416</title>
<g id="a_node50"><a xlink:href="../class.html?classId=416" target="_parent" xlink:title="Exhibitionism 416">
<polygon fill="#add8e6" points="710,-753 587,-753 587,-717 710,-717 710,-753"/>
<text text-anchor="middle" x="648.5" y="-731.3" font-family="helvetica" font-size="14.00" fill="#000000">Exhibitionism 416</text>
</a>
</g>
</g>
<!-- 316&#45;&gt;416 -->
<g id="edge40" class="edge">
<title>316-&gt;416</title>
<path fill="none" stroke="#000000" d="M491.046,-735C516.2867,-735 548.0363,-735 576.4017,-735"/>
<polygon fill="#000000" points="576.6807,-738.5001 586.6807,-735 576.6806,-731.5001 576.6807,-738.5001"/>
</g>
<!-- 417 -->
<g id="node51" class="node">
<title>417</title>
<g id="a_node51"><a xlink:href="../class.html?classId=417" target="_parent" xlink:title="Animal Training 417">
<polygon fill="#add8e6" points="716.5,-915 580.5,-915 580.5,-879 716.5,-879 716.5,-915"/>
<text text-anchor="middle" x="648.5" y="-893.3" font-family="helvetica" font-size="14.00" fill="#000000">Animal Training 417</text>
</a>
</g>
</g>
<!-- 317&#45;&gt;417 -->
<g id="edge41" class="edge">
<title>317-&gt;417</title>
<path fill="none" stroke="#000000" d="M501.0545,-897C522.4193,-897 547.1278,-897 570.1379,-897"/>
<polygon fill="#000000" points="570.2253,-900.5001 580.2253,-897 570.2252,-893.5001 570.2253,-900.5001"/>
</g>
<!-- 418 -->
<g id="node52" class="node">
<title>418</title>
<g id="a_node52"><a xlink:href="../class.html?classId=418" target="_parent" xlink:title="Fetishism 408">
<polygon fill="#add8e6" points="699,-699 598,-699 598,-663 699,-663 699,-699"/>
<text text-anchor="middle" x="648.5" y="-677.3" font-family="helvetica" font-size="14.00" fill="#000000">Fetishism 408</text>
</a>
</g>
</g>
<!-- 318&#45;&gt;418 -->
<g id="edge42" class="edge">
<title>318-&gt;418</title>
<path fill="none" stroke="#000000" d="M511.015,-681C535.7373,-681 563.6367,-681 587.8109,-681"/>
<polygon fill="#000000" points="587.9231,-684.5001 597.9231,-681 587.923,-677.5001 587.9231,-684.5001"/>
</g>
<!-- 420 -->
<g id="node53" class="node">
<title>420</title>
<g id="a_node53"><a xlink:href="../class.html?classId=420" target="_parent" xlink:title="Slavery 420">
<polygon fill="#add8e6" points="692.5,-807 604.5,-807 604.5,-771 692.5,-771 692.5,-807"/>
<text text-anchor="middle" x="648.5" y="-785.3" font-family="helvetica" font-size="14.00" fill="#000000">Slavery 420</text>
</a>
</g>
</g>
<!-- 320&#45;&gt;420 -->
<g id="edge43" class="edge">
<title>320-&gt;420</title>
<path fill="none" stroke="#000000" d="M501.0545,-789C530.1446,-789 565.4337,-789 594.1941,-789"/>
<polygon fill="#000000" points="594.471,-792.5001 604.471,-789 594.471,-785.5001 594.471,-792.5001"/>
</g>
<!-- 5 -->
<g id="node57" class="node">
<title>5</title>
<g id="a_node57"><a xlink:href="../major.html?majorId=5" target="_parent" xlink:title="Fluid Mechanics">
<polygon fill="#ee82ee" points="894.5,-36 779.5,-36 779.5,0 894.5,0 894.5,-36"/>
<text text-anchor="middle" x="837" y="-14.3" font-family="helvetica" font-size="14.00" fill="#000000">Fluid Mechanics</text>
</a>
</g>
</g>
<!-- 401&#45;&gt;5 -->
<g id="edge51" class="edge">
<title>401-&gt;5</title>
<path fill="none" stroke="#000000" d="M691.7457,-18C714.6794,-18 743.3788,-18 769.1971,-18"/>
<polygon fill="#000000" points="769.3063,-21.5001 779.3062,-18 769.3062,-14.5001 769.3063,-21.5001"/>
</g>
<!-- 402&#45;&gt;1 -->
<g id="edge46" class="edge">
<title>402-&gt;1</title>
<path fill="none" stroke="#000000" d="M701.5094,-327.936C720.8746,-332.6617 743.1332,-338.0935 763.9391,-343.1708"/>
<polygon fill="#000000" points="763.1529,-346.5816 773.6976,-345.5522 764.8125,-339.7812 763.1529,-346.5816"/>
</g>
<!-- 2 -->
<g id="node55" class="node">
<title>2</title>
<g id="a_node55"><a xlink:href="../major.html?majorId=2" target="_parent" xlink:title="Gender Studies">
<polygon fill="#ee82ee" points="892.5,-618 781.5,-618 781.5,-582 892.5,-582 892.5,-618"/>
<text text-anchor="middle" x="837" y="-596.3" font-family="helvetica" font-size="14.00" fill="#000000">Gender Studies</text>
</a>
</g>
</g>
<!-- 403&#45;&gt;2 -->
<g id="edge47" class="edge">
<title>403-&gt;2</title>
<path fill="none" stroke="#000000" d="M729.2613,-584.5679C743.2759,-586.5753 757.6968,-588.6409 771.2498,-590.5822"/>
<polygon fill="#000000" points="771.0283,-594.0861 781.4236,-592.0395 772.0209,-587.1568 771.0283,-594.0861"/>
</g>
<!-- 3 -->
<g id="node56" class="node">
<title>3</title>
<g id="a_node56"><a xlink:href="../major.html?majorId=3" target="_parent" xlink:title="Sex Psychology">
<polygon fill="#ee82ee" points="893.5,-564 780.5,-564 780.5,-528 893.5,-528 893.5,-564"/>
<text text-anchor="middle" x="837" y="-542.3" font-family="helvetica" font-size="14.00" fill="#000000">Sex Psychology</text>
</a>
</g>
</g>
<!-- 403&#45;&gt;3 -->
<g id="edge49" class="edge">
<title>403-&gt;3</title>
<path fill="none" stroke="#000000" d="M729.2613,-561.4321C742.9574,-559.4703 757.0415,-557.4529 770.3244,-555.5504"/>
<polygon fill="#000000" points="770.9033,-559.0032 780.306,-554.1206 769.9108,-552.074 770.9033,-559.0032"/>
</g>
<!-- 404&#45;&gt;2 -->
<g id="edge48" class="edge">
<title>404-&gt;2</title>
<path fill="none" stroke="#000000" d="M738.0576,-614.1721C749.2155,-612.5739 760.4613,-610.9631 771.1674,-609.4296"/>
<polygon fill="#000000" points="771.8435,-612.8686 781.2462,-607.986 770.8509,-605.9393 771.8435,-612.8686"/>
</g>
<!-- 12 -->
<g id="node63" class="node">
<title>12</title>
<g id="a_node63"><a xlink:href="../major.html?majorId=12" target="_parent" xlink:title="Oral Technologies">
<polygon fill="#ee82ee" points="899.5,-144 774.5,-144 774.5,-108 899.5,-108 899.5,-144"/>
<text text-anchor="middle" x="837" y="-122.3" font-family="helvetica" font-size="14.00" fill="#000000">Oral Technologies</text>
</a>
</g>
</g>
<!-- 405&#45;&gt;12 -->
<g id="edge59" class="edge">
<title>405-&gt;12</title>
<path fill="none" stroke="#000000" d="M714.069,-188.9324C722.2182,-186.1871 730.3639,-183.1941 738,-180 758.61,-171.3791 780.5164,-159.7146 798.4685,-149.4327"/>
<polygon fill="#000000" points="800.5788,-152.2546 807.468,-144.2054 797.0629,-146.2015 800.5788,-152.2546"/>
</g>
<!-- 406&#45;&gt;12 -->
<g id="edge60" class="edge">
<title>406-&gt;12</title>
<path fill="none" stroke="#000000" d="M714.1635,-108.4054C730.3536,-110.7244 747.7868,-113.2215 764.2892,-115.5852"/>
<polygon fill="#000000" points="764.0293,-119.0836 774.4245,-117.0369 765.0219,-112.1543 764.0293,-119.0836"/>
</g>
<!-- 11 -->
<g id="node62" class="node">
<title>11</title>
<g id="a_node62"><a xlink:href="../major.html?majorId=11" target="_parent" xlink:title="Orgasm Science">
<polygon fill="#ee82ee" points="896,-510 778,-510 778,-474 896,-474 896,-510"/>
<text text-anchor="middle" x="837" y="-488.3" font-family="helvetica" font-size="14.00" fill="#000000">Orgasm Science</text>
</a>
</g>
</g>
<!-- 409&#45;&gt;11 -->
<g id="edge57" class="edge">
<title>409-&gt;11</title>
<path fill="none" stroke="#000000" d="M718.1549,-474.9771C734.3959,-477.3034 751.6847,-479.7798 767.9015,-482.1026"/>
<polygon fill="#000000" points="767.446,-485.573 777.8413,-483.5263 768.4386,-478.6437 767.446,-485.573"/>
</g>
<!-- 413&#45;&gt;3 -->
<g id="edge50" class="edge">
<title>413-&gt;3</title>
<path fill="none" stroke="#000000" d="M715.7545,-528.6333C733.4315,-531.1652 752.4921,-533.8954 770.1479,-536.4244"/>
<polygon fill="#000000" points="769.9647,-539.9338 780.3599,-537.8871 770.9573,-533.0045 769.9647,-539.9338"/>
</g>
<!-- 413&#45;&gt;11 -->
<g id="edge58" class="edge">
<title>413-&gt;11</title>
<path fill="none" stroke="#000000" d="M715.7545,-509.3667C732.5658,-506.9587 750.6285,-504.3715 767.5442,-501.9486"/>
<polygon fill="#000000" points="768.5042,-505.3469 777.9069,-500.4643 767.5116,-498.4176 768.5042,-505.3469"/>
</g>
<!-- 13 -->
<g id="node64" class="node">
<title>13</title>
<g id="a_node64"><a xlink:href="../major.html?majorId=13" target="_parent" xlink:title="Sex Slavery">
<polygon fill="#ee82ee" points="881.5,-834 792.5,-834 792.5,-798 881.5,-798 881.5,-834"/>
<text text-anchor="middle" x="837" y="-812.3" font-family="helvetica" font-size="14.00" fill="#000000">Sex Slavery</text>
</a>
</g>
</g>
<!-- 414&#45;&gt;13 -->
<g id="edge61" class="edge">
<title>414-&gt;13</title>
<path fill="none" stroke="#000000" d="M705.0562,-834.8991C729.5377,-831.3925 758.0815,-827.304 782.346,-823.8284"/>
<polygon fill="#000000" points="783.056,-827.2625 792.4587,-822.3799 782.0635,-820.3333 783.056,-827.2625"/>
</g>
<!-- 7 -->
<g id="node59" class="node">
<title>7</title>
<g id="a_node59"><a xlink:href="../major.html?majorId=7" target="_parent" xlink:title="Sex Trades">
<polygon fill="#ee82ee" points="879,-279 795,-279 795,-243 879,-243 879,-279"/>
<text text-anchor="middle" x="837" y="-257.3" font-family="helvetica" font-size="14.00" fill="#000000">Sex Trades</text>
</a>
</g>
</g>
<!-- 415&#45;&gt;7 -->
<g id="edge54" class="edge">
<title>415-&gt;7</title>
<path fill="none" stroke="#000000" d="M727.6216,-261C746.9086,-261 767.0634,-261 784.7409,-261"/>
<polygon fill="#000000" points="784.8377,-264.5001 794.8377,-261 784.8376,-257.5001 784.8377,-264.5001"/>
</g>
<!-- 6 -->
<g id="node58" class="node">
<title>6</title>
<g id="a_node58"><a xlink:href="../major.html?majorId=6" target="_parent" xlink:title="Public Relations">
<polygon fill="#ee82ee" points="893.5,-780 780.5,-780 780.5,-744 893.5,-744 893.5,-780"/>
<text text-anchor="middle" x="837" y="-758.3" font-family="helvetica" font-size="14.00" fill="#000000">Public Relations</text>
</a>
</g>
</g>
<!-- 416&#45;&gt;6 -->
<g id="edge52" class="edge">
<title>416-&gt;6</title>
<path fill="none" stroke="#000000" d="M710.222,-743.8408C729.4231,-746.5911 750.6773,-749.6355 770.2079,-752.433"/>
<polygon fill="#000000" points="769.8488,-755.9172 780.2441,-753.8705 770.8414,-748.9879 769.8488,-755.9172"/>
</g>
<!-- 8 -->
<g id="node60" class="node">
<title>8</title>
<g id="a_node60"><a xlink:href="../major.html?majorId=8" target="_parent" xlink:title="Pet Science">
<polygon fill="#ee82ee" points="881,-915 793,-915 793,-879 881,-879 881,-915"/>
<text text-anchor="middle" x="837" y="-893.3" font-family="helvetica" font-size="14.00" fill="#000000">Pet Science</text>
</a>
</g>
</g>
<!-- 417&#45;&gt;8 -->
<g id="edge55" class="edge">
<title>417-&gt;8</title>
<path fill="none" stroke="#000000" d="M716.5528,-897C738.2945,-897 762.0565,-897 782.6865,-897"/>
<polygon fill="#000000" points="782.8498,-900.5001 792.8498,-897 782.8497,-893.5001 782.8498,-900.5001"/>
</g>
<!-- 9 -->
<g id="node61" class="node">
<title>9</title>
<g id="a_node61"><a xlink:href="../major.html?majorId=9" target="_parent" xlink:title="Fetish Design">
<polygon fill="#ee82ee" points="886.5,-699 787.5,-699 787.5,-663 886.5,-663 886.5,-699"/>
<text text-anchor="middle" x="837" y="-677.3" font-family="helvetica" font-size="14.00" fill="#000000">Fetish Design</text>
</a>
</g>
</g>
<!-- 418&#45;&gt;9 -->
<g id="edge56" class="edge">
<title>418-&gt;9</title>
<path fill="none" stroke="#000000" d="M699.0145,-681C723.0726,-681 752.0157,-681 777.1679,-681"/>
<polygon fill="#000000" points="777.3256,-684.5001 787.3256,-681 777.3255,-677.5001 777.3256,-684.5001"/>
</g>
<!-- 420&#45;&gt;6 -->
<g id="edge53" class="edge">
<title>420-&gt;6</title>
<path fill="none" stroke="#000000" d="M692.6949,-782.6697C715.7507,-779.3673 744.4363,-775.2585 770.1441,-771.5762"/>
<polygon fill="#000000" points="770.8015,-775.0178 780.2041,-770.1352 769.8089,-768.0885 770.8015,-775.0178"/>
</g>
<!-- 420&#45;&gt;13 -->
<g id="edge62" class="edge">
<title>420-&gt;13</title>
<path fill="none" stroke="#000000" d="M692.6949,-795.3303C719.4438,-799.1617 753.7703,-804.0785 782.2329,-808.1554"/>
<polygon fill="#000000" points="782.0336,-811.6625 792.4289,-809.6158 783.0262,-804.7332 782.0336,-811.6625"/>
</g>
</g>
</svg>